systemC/Debug/controller_trace.vcd
$date
     Dec 13, 2023       23:50:47
$end

$version
 SystemC 2.3.3-Accellera --- Dec  7 2023 13:04:03
$end

$timescale
     1 ns
$end

$scope module SystemC $end
$var wire   32  aaaaa  d_signal [31:0]  $end
$var wire    1  aaaab  clock_signal       $end
$var wire    1  aaaac  output_signal       $end
$upscope $end
$enddefinitions  $end

$comment
All initial values are dumped below at time 0 sec = 0 timescale units.
$end

$dumpvars
b10 aaaaa
0aaaab
0aaaac
$end

#20000
1aaaab

#70000
0aaaab

#120000
1aaaab
1aaaac

#170000
0aaaab

#220000
1aaaab
0aaaac

#270000
0aaaab

#320000
1aaaab

#370000
0aaaab

#420000
1aaaab
1aaaac

#470000
0aaaab

#520000
1aaaab
0aaaac

#570000
0aaaab

#620000
1aaaab

#670000
0aaaab

#720000
1aaaab
1aaaac

#770000
0aaaab

#820000
1aaaab
0aaaac

#870000
0aaaab

#920000
1aaaab

#970000
0aaaab

#1020000
1aaaab
1aaaac

#1070000
0aaaab

#1120000
1aaaab
0aaaac

#1170000
0aaaab

#1220000
1aaaab

#1270000
0aaaab

#1320000
1aaaab
1aaaac

#1370000
0aaaab

#1420000
1aaaab
0aaaac

#1470000
0aaaab

#1520000
1aaaab

#1570000
0aaaab

#1620000
1aaaab
1aaaac

#1670000
0aaaab

#1720000
1aaaab
0aaaac

#1770000
0aaaab

#1820000
1aaaab

#1870000
0aaaab

#1920000
1aaaab
1aaaac

#1970000
0aaaab

#2020000
1aaaab
0aaaac

#2070000
0aaaab

#2120000
1aaaab

#2170000
0aaaab

#2220000
1aaaab
1aaaac

#2270000
0aaaab

#2320000
1aaaab
0aaaac

#2370000
0aaaab

#2420000
1aaaab

#2470000
0aaaab

#2520000
1aaaab
1aaaac

#2570000
0aaaab

#2620000
1aaaab
0aaaac

#2670000
0aaaab

#2720000
1aaaab

#2770000
0aaaab

#2820000
1aaaab
1aaaac

#2870000
0aaaab

#2920000
1aaaab
0aaaac

#2970000
0aaaab

#3020000
1aaaab

#3070000
0aaaab

#3120000
1aaaab
1aaaac

#3170000
0aaaab

#3220000
1aaaab
0aaaac

#3270000
0aaaab

#3320000
1aaaab

#3370000
0aaaab

#3420000
1aaaab
1aaaac

#3470000
0aaaab

#3520000
1aaaab
0aaaac

#3570000
0aaaab

#3620000
1aaaab

#3670000
0aaaab

#3720000
1aaaab
1aaaac

#3770000
0aaaab

#3820000
1aaaab
0aaaac

#3870000
0aaaab

#3920000
1aaaab

#3970000
0aaaab

#4020000
1aaaab
1aaaac

#4070000
0aaaab

#4120000
1aaaab
0aaaac

#4170000
0aaaab

#4220000
1aaaab

#4270000
0aaaab

#4320000
1aaaab
1aaaac

#4370000
0aaaab

#4420000
1aaaab
0aaaac

#4470000
0aaaab

#4520000
1aaaab

#4570000
0aaaab

#4620000
1aaaab
1aaaac

#4670000
0aaaab

#4720000
1aaaab
0aaaac

#4770000
0aaaab

#4820000
1aaaab

#4870000
0aaaab

#4920000
1aaaab
1aaaac

#4970000
0aaaab

#5020000
1aaaab
0aaaac

#5070000
0aaaab

#5120000
1aaaab

#5170000
0aaaab

#5220000
1aaaab
1aaaac

#5270000
0aaaab

#5320000
1aaaab
0aaaac

#5370000
0aaaab

#5420000
1aaaab

#5470000
0aaaab

#5520000
1aaaab
1aaaac

#5570000
0aaaab

#5620000
1aaaab
0aaaac

#5670000
0aaaab

#5720000
1aaaab

#5770000
0aaaab

#5820000
1aaaab
1aaaac

#5870000
0aaaab

#5920000
1aaaab
0aaaac

#5970000
0aaaab

#6020000
1aaaab

#6070000
0aaaab

#6120000
1aaaab
1aaaac

#6170000
0aaaab

#6220000
1aaaab
0aaaac

#6270000
0aaaab

#6320000
1aaaab

#6370000
0aaaab

#6420000
1aaaab
1aaaac

#6470000
0aaaab

#6520000
1aaaab
0aaaac

#6570000
0aaaab

#6620000
1aaaab

#6670000
0aaaab

#6720000
1aaaab
1aaaac

#6770000
0aaaab

#6820000
1aaaab
0aaaac

#6870000
0aaaab

#6920000
1aaaab

#6970000
0aaaab

#7020000
1aaaab
1aaaac

#7070000
0aaaab

#7120000
1aaaab
0aaaac

#7170000
0aaaab

#7220000
1aaaab

#7270000
0aaaab

#7320000
1aaaab
1aaaac

#7370000
0aaaab

#7420000
1aaaab
0aaaac

#7470000
0aaaab

#7520000
1aaaab

#7570000
0aaaab

#7620000
1aaaab
1aaaac

#7670000
0aaaab

#7720000
1aaaab
0aaaac

#7770000
0aaaab

#7820000
1aaaab

#7870000
0aaaab

#7920000
1aaaab
1aaaac

#7970000
0aaaab

#8020000
1aaaab
0aaaac

#8070000
0aaaab

#8120000
1aaaab

#8170000
0aaaab

#8220000
1aaaab
1aaaac

#8270000
0aaaab

#8320000
1aaaab
0aaaac

#8370000
0aaaab

#8420000
1aaaab

#8470000
0aaaab

#8520000
1aaaab
1aaaac

#8570000
0aaaab

#8620000
1aaaab
0aaaac

#8670000
0aaaab

#8720000
1aaaab

#8770000
0aaaab

#8820000
1aaaab
1aaaac

#8870000
0aaaab

#8920000
1aaaab
0aaaac

#8970000
0aaaab

#9020000
1aaaab

#9070000
0aaaab

#9120000
1aaaab
1aaaac

#9170000
0aaaab

#9220000
1aaaab
0aaaac

#9270000
0aaaab

#9320000
1aaaab

#9370000
0aaaab

#9420000
1aaaab
1aaaac

#9470000
0aaaab

#9520000
1aaaab
0aaaac

#9570000
0aaaab

#9620000
1aaaab

#9670000
0aaaab

#9720000
1aaaab
1aaaac

#9770000
0aaaab

#9820000
1aaaab
0aaaac

#9870000
0aaaab

#9920000
1aaaab

#9970000
0aaaab

#10020000
1aaaab
1aaaac

#10070000
0aaaab

#10120000
1aaaab
0aaaac

#10170000
0aaaab

#10220000
1aaaab

#10270000
0aaaab

#10320000
1aaaab
1aaaac

#10370000
0aaaab

#10420000
1aaaab
0aaaac

#10470000
0aaaab

#10520000
1aaaab

#10570000
0aaaab

#10620000
1aaaab
1aaaac

#10670000
0aaaab

#10720000
1aaaab
0aaaac

#10770000
0aaaab

#10820000
1aaaab

#10870000
0aaaab

#10920000
1aaaab
1aaaac

#10970000
0aaaab

#11020000
1aaaab
0aaaac

#11070000
0aaaab

#11120000
1aaaab

#11170000
0aaaab

#11220000
1aaaab
1aaaac

#11270000
0aaaab

#11320000
1aaaab
0aaaac

#11370000
0aaaab

#11420000
1aaaab

#11470000
0aaaab

#11520000
1aaaab
1aaaac

#11570000
0aaaab

#11620000
1aaaab
0aaaac

#11670000
0aaaab

#11720000
1aaaab

#11770000
0aaaab

#11820000
1aaaab
1aaaac

#11870000
0aaaab

#11920000
1aaaab
0aaaac

#11970000
0aaaab

#12020000
1aaaab

#12070000
0aaaab

#12120000
1aaaab
1aaaac

#12170000
0aaaab

#12220000
1aaaab
0aaaac

#12270000
0aaaab

#12320000
1aaaab

#12370000
0aaaab

#12420000
1aaaab
1aaaac

#12470000
0aaaab

#12520000
1aaaab
0aaaac

#12570000
0aaaab

#12620000
1aaaab

#12670000
0aaaab

#12720000
1aaaab
1aaaac

#12770000
0aaaab

#12820000
1aaaab
0aaaac

#12870000
0aaaab

#12920000
1aaaab

#12970000
0aaaab

#13020000
1aaaab
1aaaac

#13070000
0aaaab

#13120000
1aaaab
0aaaac

#13170000
0aaaab

#13220000
1aaaab

#13270000
0aaaab

#13320000
1aaaab
1aaaac

#13370000
0aaaab

#13420000
1aaaab
0aaaac

#13470000
0aaaab

#13520000
1aaaab

#13570000
0aaaab

#13620000
1aaaab
1aaaac

#13670000
0aaaab

#13720000
1aaaab
0aaaac

#13770000
0aaaab

#13820000
1aaaab

#13870000
0aaaab

#13920000
1aaaab
1aaaac

#13970000
0aaaab

#14020000
1aaaab
0aaaac

#14070000
0aaaab

#14120000
1aaaab

#14170000
0aaaab

#14220000
1aaaab
1aaaac

#14270000
0aaaab

#14320000
1aaaab
0aaaac

#14370000
0aaaab

#14420000
1aaaab

#14470000
0aaaab

#14520000
1aaaab
1aaaac

#14570000
0aaaab

#14620000
1aaaab
0aaaac

#14670000
0aaaab

#14720000
1aaaab

#14770000
0aaaab

#14820000
1aaaab
1aaaac

#14870000
0aaaab

#14920000
1aaaab
0aaaac

#14970000
0aaaab

#15020000
1aaaab

#15070000
0aaaab

#15120000
1aaaab
1aaaac

#15170000
0aaaab

#15220000
1aaaab
0aaaac

#15270000
0aaaab

#15320000
1aaaab

#15370000
0aaaab

#15420000
1aaaab
1aaaac

#15470000
0aaaab

#15520000
1aaaab
0aaaac

#15570000
0aaaab

#15620000
1aaaab

#15670000
0aaaab

#15720000
1aaaab
1aaaac

#15770000
0aaaab

#15820000
1aaaab
0aaaac

#15870000
0aaaab

#15920000
1aaaab

#15970000
0aaaab

#16020000
1aaaab
1aaaac

#16070000
0aaaab

#16120000
1aaaab
0aaaac

#16170000
0aaaab

#16220000
1aaaab

#16270000
0aaaab

#16320000
1aaaab
1aaaac

#16370000
0aaaab

#16420000
1aaaab
0aaaac

#16470000
0aaaab

#16520000
1aaaab

#16570000
0aaaab

#16620000
1aaaab
1aaaac

#16670000
0aaaab

#16720000
1aaaab
0aaaac

#16770000
0aaaab

#16820000
1aaaab

#16870000
0aaaab

#16920000
1aaaab
1aaaac

#16970000
0aaaab

#17020000
1aaaab
0aaaac

#17070000
0aaaab

#17120000
1aaaab

#17170000
0aaaab

#17220000
1aaaab
1aaaac

#17270000
0aaaab

#17320000
1aaaab
0aaaac

#17370000
0aaaab

#17420000
1aaaab

#17470000
0aaaab

#17520000
1aaaab
1aaaac

#17570000
0aaaab

#17620000
1aaaab
0aaaac

#17670000
0aaaab

#17720000
1aaaab

#17770000
0aaaab

#17820000
1aaaab
1aaaac

#17870000
0aaaab

#17920000
1aaaab
0aaaac

#17970000
0aaaab

#18020000
1aaaab

#18070000
0aaaab

#18120000
1aaaab
1aaaac

#18170000
0aaaab

#18220000
1aaaab
0aaaac

#18270000
0aaaab

#18320000
1aaaab

#18370000
0aaaab

#18420000
1aaaab
1aaaac

#18470000
0aaaab

#18520000
1aaaab
0aaaac

#18570000
0aaaab

#18620000
1aaaab

#18670000
0aaaab

#18720000
1aaaab
1aaaac

#18770000
0aaaab

#18820000
1aaaab
0aaaac

#18870000
0aaaab

#18920000
1aaaab

#18970000
0aaaab

#19020000
1aaaab
1aaaac

#19070000
0aaaab

#19120000
1aaaab
0aaaac

#19170000
0aaaab

#19220000
1aaaab

#19270000
0aaaab

#19320000
1aaaab
1aaaac

#19370000
0aaaab

#19420000
1aaaab
0aaaac

#19470000
0aaaab

#19520000
1aaaab

#19570000
0aaaab

#19620000
1aaaab
1aaaac

#19670000
0aaaab

#19720000
1aaaab
0aaaac

#19770000
0aaaab

#19820000
1aaaab

#19870000
0aaaab

#19920000
1aaaab
1aaaac

#19970000
0aaaab

#20020000
1aaaab
0aaaac

#20070000
0aaaab

#20120000
1aaaab

#20170000
0aaaab

#20220000
1aaaab
1aaaac

#20270000
0aaaab

#20320000
1aaaab
0aaaac

#20370000
0aaaab

#20420000
1aaaab

#20470000
0aaaab

#20520000
1aaaab
1aaaac

#20570000
0aaaab

#20620000
1aaaab
0aaaac

#20670000
0aaaab

#20720000
1aaaab

#20770000
0aaaab

#20820000
1aaaab
1aaaac

#20870000
0aaaab

#20920000
1aaaab
0aaaac

#20970000
0aaaab

#21020000
1aaaab

#21070000
0aaaab

#21120000
1aaaab
1aaaac

#21170000
0aaaab

#21220000
1aaaab
0aaaac

#21270000
0aaaab

#21320000
1aaaab

#21370000
0aaaab

#21420000
1aaaab
1aaaac

#21470000
0aaaab

#21520000
1aaaab
0aaaac

#21570000
0aaaab

#21620000
1aaaab

#21670000
0aaaab

#21720000
1aaaab
1aaaac

#21770000
0aaaab

#21820000
1aaaab
0aaaac

#21870000
0aaaab

#21920000
1aaaab

#21970000
0aaaab

#22020000
1aaaab
1aaaac

#22070000
0aaaab

#22120000
1aaaab
0aaaac

#22170000
0aaaab

#22220000
1aaaab

#22270000
0aaaab

#22320000
1aaaab
1aaaac

#22370000
0aaaab

#22420000
1aaaab
0aaaac

#22470000
0aaaab

#22520000
1aaaab

#22570000
0aaaab

#22620000
1aaaab
1aaaac

#22670000
0aaaab

#22720000
1aaaab
0aaaac

#22770000
0aaaab

#22820000
1aaaab

#22870000
0aaaab

#22920000
1aaaab
1aaaac

#22970000
0aaaab

#23020000
1aaaab
0aaaac

#23070000
0aaaab

#23120000
1aaaab

#23170000
0aaaab

#23220000
1aaaab
1aaaac

#23270000
0aaaab

#23320000
1aaaab
0aaaac

#23370000
0aaaab

#23420000
1aaaab

#23470000
0aaaab

#23520000
1aaaab
1aaaac

#23570000
0aaaab

#23620000
1aaaab
0aaaac

#23670000
0aaaab

#23720000
1aaaab

#23770000
0aaaab

#23820000
1aaaab
1aaaac

#23870000
0aaaab

#23920000
1aaaab
0aaaac

#23970000
0aaaab

#24020000
1aaaab

#24070000
0aaaab

#24120000
1aaaab
1aaaac

#24170000
0aaaab

#24220000
1aaaab
0aaaac

#24270000
0aaaab

#24320000
1aaaab

#24370000
0aaaab

#24420000
1aaaab
1aaaac

#24470000
0aaaab

#24520000
1aaaab
0aaaac

#24570000
0aaaab

#24620000
1aaaab

#24670000
0aaaab

#24720000
1aaaab
1aaaac

#24770000
0aaaab

#24820000
1aaaab
0aaaac

#24870000
0aaaab

#24920000
1aaaab

#24970000
0aaaab

#25020000
1aaaab
1aaaac

#25070000
0aaaab

#25120000
1aaaab
0aaaac

#25170000
0aaaab

#25220000
1aaaab

#25270000
0aaaab

#25320000
1aaaab
1aaaac

#25370000
0aaaab

#25420000
1aaaab
0aaaac

#25470000
0aaaab

#25520000
1aaaab

#25570000
0aaaab

#25620000
1aaaab
1aaaac

#25670000
0aaaab

#25720000
1aaaab
0aaaac

#25770000
0aaaab

#25820000
1aaaab

#25870000
0aaaab

#25920000
1aaaab
1aaaac

#25970000
0aaaab

#26020000
1aaaab
0aaaac

#26070000
0aaaab

#26120000
1aaaab

#26170000
0aaaab

#26220000
1aaaab
1aaaac

#26270000
0aaaab

#26320000
1aaaab
0aaaac

#26370000
0aaaab

#26420000
1aaaab

#26470000
0aaaab

#26520000
1aaaab
1aaaac

#26570000
0aaaab

#26620000
1aaaab
0aaaac

#26670000
0aaaab

#26720000
1aaaab

#26770000
0aaaab

#26820000
1aaaab
1aaaac

#26870000
0aaaab

#26920000
1aaaab
0aaaac

#26970000
0aaaab

#27020000
1aaaab

#27070000
0aaaab

#27120000
1aaaab
1aaaac

#27170000
0aaaab

#27220000
1aaaab
0aaaac

#27270000
0aaaab

#27320000
1aaaab

#27370000
0aaaab

#27420000
1aaaab
1aaaac

#27470000
0aaaab

#27520000
1aaaab
0aaaac

#27570000
0aaaab

#27620000
1aaaab

#27670000
0aaaab

#27720000
1aaaab
1aaaac

#27770000
0aaaab

#27820000
1aaaab
0aaaac

#27870000
0aaaab

#27920000
1aaaab

#27970000
0aaaab

#28020000
1aaaab
1aaaac

#28070000
0aaaab

#28120000
1aaaab
0aaaac

#28170000
0aaaab

#28220000
1aaaab

#28270000
0aaaab

#28320000
1aaaab
1aaaac

#28370000
0aaaab

#28420000
1aaaab
0aaaac

#28470000
0aaaab

#28520000
1aaaab

#28570000
0aaaab

#28620000
1aaaab
1aaaac

#28670000
0aaaab

#28720000
1aaaab
0aaaac

#28770000
0aaaab

#28820000
1aaaab

#28870000
0aaaab

#28920000
1aaaab
1aaaac

#28970000
0aaaab

#29020000
1aaaab
0aaaac

#29070000
0aaaab

#29120000
1aaaab

#29170000
0aaaab

#29220000
1aaaab
1aaaac

#29270000
0aaaab

#29320000
1aaaab
0aaaac

#29370000
0aaaab

#29420000
1aaaab

#29470000
0aaaab

#29520000
1aaaab
1aaaac

#29570000
0aaaab

#29620000
1aaaab
0aaaac

#29670000
0aaaab

#29720000
1aaaab

#29770000
0aaaab

#29820000
1aaaab
1aaaac

#29870000
0aaaab

#29920000
1aaaab
0aaaac

#29970000
0aaaab

#30020000
1aaaab

#30070000
0aaaab

#30120000
1aaaab
1aaaac

#30170000
0aaaab

#30220000
1aaaab
0aaaac

#30270000
0aaaab

#30320000
1aaaab

#30370000
0aaaab

#30420000
1aaaab
1aaaac

#30470000
0aaaab

#30520000
1aaaab
0aaaac

#30570000
0aaaab

#30620000
1aaaab

#30670000
0aaaab

#30720000
1aaaab
1aaaac

#30770000
0aaaab

#30820000
1aaaab
0aaaac

#30870000
0aaaab

#30920000
1aaaab

#30970000
0aaaab

#31020000
1aaaab
1aaaac

#31070000
0aaaab

#31120000
1aaaab
0aaaac

#31170000
0aaaab

#31220000
1aaaab

#31270000
0aaaab

#31320000
1aaaab
1aaaac

#31370000
0aaaab

#31420000
1aaaab
0aaaac

#31470000
0aaaab

#31520000
1aaaab

#31570000
0aaaab

#31620000
1aaaab
1aaaac

#31670000
0aaaab

#31720000
1aaaab
0aaaac

#31770000
0aaaab

#31820000
1aaaab

#31870000
0aaaab

#31920000
1aaaab
1aaaac

#31970000
0aaaab

#32020000
1aaaab
0aaaac

#32070000
0aaaab

#32120000
1aaaab

#32170000
0aaaab

#32220000
1aaaab
1aaaac

#32270000
0aaaab

#32320000
1aaaab
0aaaac

#32370000
0aaaab

#32420000
1aaaab

#32470000
0aaaab

#32520000
1aaaab
1aaaac

#32570000
0aaaab

#32620000
1aaaab
0aaaac

#32670000
0aaaab

#32720000
1aaaab

#32770000
0aaaab

#32820000
1aaaab
1aaaac

#32870000
0aaaab

#32920000
1aaaab
0aaaac

#32970000
0aaaab

#33020000
1aaaab

#33070000
0aaaab

#33120000
1aaaab
1aaaac

#33170000
0aaaab

#33220000
1aaaab
0aaaac

#33270000
0aaaab

#33320000
1aaaab

#33370000
0aaaab

#33420000
1aaaab
1aaaac

#33470000
0aaaab

#33520000
1aaaab
0aaaac

#33570000
0aaaab

#33620000
1aaaab

#33670000
0aaaab

#33720000
1aaaab
1aaaac

#33770000
0aaaab

#33820000
1aaaab
0aaaac

#33870000
0aaaab

#33920000
1aaaab

#33970000
0aaaab

#34020000
1aaaab
1aaaac

#34070000
0aaaab

#34120000
1aaaab
0aaaac

#34170000
0aaaab

#34220000
1aaaab

#34270000
0aaaab

#34320000
1aaaab
1aaaac

#34370000
0aaaab

#34420000
1aaaab
0aaaac

#34470000
0aaaab

#34520000
1aaaab

#34570000
0aaaab

#34620000
1aaaab
1aaaac

#34670000
0aaaab

#34720000
1aaaab
0aaaac

#34770000
0aaaab

#34820000
1aaaab

#34870000
0aaaab

#34920000
1aaaab
1aaaac

#34970000
0aaaab

#35020000
1aaaab
0aaaac

#35070000
0aaaab

#35120000
1aaaab

#35170000
0aaaab

#35220000
1aaaab
1aaaac

#35270000
0aaaab

#35320000
1aaaab
0aaaac

#35370000
0aaaab

#35420000
1aaaab

#35470000
0aaaab

#35520000
1aaaab
1aaaac

#35570000
0aaaab

#35620000
1aaaab
0aaaac

#35670000
0aaaab

#35720000
1aaaab

#35770000
0aaaab

#35820000
1aaaab
1aaaac

#35870000
0aaaab

#35920000
1aaaab
0aaaac

#35970000
0aaaab

#36020000
1aaaab

#36070000
0aaaab

#36120000
1aaaab
1aaaac

#36170000
0aaaab

#36220000
1aaaab
0aaaac

#36270000
0aaaab

#36320000
1aaaab

#36370000
0aaaab

#36420000
1aaaab
1aaaac

#36470000
0aaaab

#36520000
1aaaab
0aaaac

#36570000
0aaaab

#36620000
1aaaab

#36670000
0aaaab

#36720000
1aaaab
1aaaac

#36770000
0aaaab

#36820000
1aaaab
0aaaac

#36870000
0aaaab

#36920000
1aaaab

#36970000
0aaaab

#37020000
1aaaab
1aaaac

#37070000
0aaaab

#37120000
1aaaab
0aaaac

#37170000
0aaaab

#37220000
1aaaab

#37270000
0aaaab

#37320000
1aaaab
1aaaac

#37370000
0aaaab

#37420000
1aaaab
0aaaac

#37470000
0aaaab

#37520000
1aaaab

#37570000
0aaaab

#37620000
1aaaab
1aaaac

#37670000
0aaaab

#37720000
1aaaab
0aaaac

#37770000
0aaaab

#37820000
1aaaab

#37870000
0aaaab

#37920000
1aaaab
1aaaac

#37970000
0aaaab

#38020000
1aaaab
0aaaac

#38070000
0aaaab

#38120000
1aaaab

#38170000
0aaaab

#38220000
1aaaab
1aaaac

#38270000
0aaaab

#38320000
1aaaab
0aaaac

#38370000
0aaaab

#38420000
1aaaab

#38470000
0aaaab

#38520000
1aaaab
1aaaac

#38570000
0aaaab

#38620000
1aaaab
0aaaac

#38670000
0aaaab

#38720000
1aaaab

#38770000
0aaaab

#38820000
1aaaab
1aaaac

#38870000
0aaaab

#38920000
1aaaab
0aaaac

#38970000
0aaaab

#39020000
1aaaab

#39070000
0aaaab

#39120000
1aaaab
1aaaac

#39170000
0aaaab

#39220000
1aaaab
0aaaac

#39270000
0aaaab

#39320000
1aaaab

#39370000
0aaaab

#39420000
1aaaab
1aaaac

#39470000
0aaaab

#39520000
1aaaab
0aaaac

#39570000
0aaaab

#39620000
1aaaab

#39670000
0aaaab

#39720000
1aaaab
1aaaac

#39770000
0aaaab

#39820000
1aaaab
0aaaac

#39870000
0aaaab

#39920000
1aaaab

#39970000
0aaaab

#40020000
1aaaab
1aaaac

#40070000
0aaaab

#40120000
1aaaab
0aaaac

#40170000
0aaaab

#40220000
1aaaab

#40270000
0aaaab

#40320000
1aaaab
1aaaac

#40370000
0aaaab

#40420000
1aaaab
0aaaac

#40470000
0aaaab

#40520000
1aaaab

#40570000
0aaaab

#40620000
1aaaab
1aaaac

#40670000
0aaaab

#40720000
1aaaab
0aaaac

#40770000
0aaaab

#40820000
1aaaab

#40870000
0aaaab

#40920000
1aaaab
1aaaac

#40970000
0aaaab

#41020000
1aaaab
0aaaac

#41070000
0aaaab

#41120000
1aaaab

#41170000
0aaaab

#41220000
1aaaab
1aaaac

#41270000
0aaaab

#41320000
1aaaab
0aaaac

#41370000
0aaaab

#41420000
1aaaab

#41470000
0aaaab

#41520000
1aaaab
1aaaac

#41570000
0aaaab

#41620000
1aaaab
0aaaac

#41670000
0aaaab

#41720000
1aaaab

#41770000
0aaaab

#41820000
1aaaab
1aaaac

#41870000
0aaaab

#41920000
1aaaab
0aaaac

#41970000
0aaaab

#42020000
1aaaab

#42070000
0aaaab

#42120000
1aaaab
1aaaac

#42170000
0aaaab

#42220000
1aaaab
0aaaac

#42270000
0aaaab

#42320000
1aaaab

#42370000
0aaaab

#42420000
1aaaab
1aaaac

#42470000
0aaaab

#42520000
1aaaab
0aaaac

#42570000
0aaaab

#42620000
1aaaab

#42670000
0aaaab

#42720000
1aaaab
1aaaac

#42770000
0aaaab

#42820000
1aaaab
0aaaac

#42870000
0aaaab

#42920000
1aaaab

#42970000
0aaaab

#43020000
1aaaab
1aaaac

#43070000
0aaaab

#43120000
1aaaab
0aaaac

#43170000
0aaaab

#43220000
1aaaab

#43270000
0aaaab

#43320000
1aaaab
1aaaac

#43370000
0aaaab

#43420000
1aaaab
0aaaac

#43470000
0aaaab

#43520000
1aaaab

#43570000
0aaaab

#43620000
1aaaab
1aaaac

#43670000
0aaaab

#43720000
1aaaab
0aaaac

#43770000
0aaaab

#43820000
1aaaab

#43870000
0aaaab

#43920000
1aaaab
1aaaac

#43970000
0aaaab

#44020000
1aaaab
0aaaac

#44070000
0aaaab

#44120000
1aaaab

#44170000
0aaaab

#44220000
1aaaab
1aaaac

#44270000
0aaaab

#44320000
1aaaab
0aaaac

#44370000
0aaaab

#44420000
1aaaab

#44470000
0aaaab

#44520000
1aaaab
1aaaac

#44570000
0aaaab

#44620000
1aaaab
0aaaac

#44670000
0aaaab

#44720000
1aaaab

#44770000
0aaaab

#44820000
1aaaab
1aaaac

#44870000
0aaaab

#44920000
1aaaab
0aaaac

#44970000
0aaaab

#45020000
1aaaab

#45070000
0aaaab

#45120000
1aaaab
1aaaac

#45170000
0aaaab

#45220000
1aaaab
0aaaac

#45270000
0aaaab

#45320000
1aaaab

#45370000
0aaaab

#45420000
1aaaab
1aaaac

#45470000
0aaaab

#45520000
1aaaab
0aaaac

#45570000
0aaaab

#45620000
1aaaab

#45670000
0aaaab

#45720000
1aaaab
1aaaac

#45770000
0aaaab

#45820000
1aaaab
0aaaac

#45870000
0aaaab

#45920000
1aaaab

#45970000
0aaaab

#46020000
1aaaab
1aaaac

#46070000
0aaaab

#46120000
1aaaab
0aaaac

#46170000
0aaaab

#46220000
1aaaab

#46270000
0aaaab

#46320000
1aaaab
1aaaac

#46370000
0aaaab

#46420000
1aaaab
0aaaac

#46470000
0aaaab

#46520000
1aaaab

#46570000
0aaaab

#46620000
1aaaab
1aaaac

#46670000
0aaaab

#46720000
1aaaab
0aaaac

#46770000
0aaaab

#46820000
1aaaab

#46870000
0aaaab

#46920000
1aaaab
1aaaac

#46970000
0aaaab

#47020000
1aaaab
0aaaac

#47070000
0aaaab

#47120000
1aaaab

#47170000
0aaaab

#47220000
1aaaab
1aaaac

#47270000
0aaaab

#47320000
1aaaab
0aaaac

#47370000
0aaaab

#47420000
1aaaab

#47470000
0aaaab

#47520000
1aaaab
1aaaac

#47570000
0aaaab

#47620000
1aaaab
0aaaac

#47670000
0aaaab

#47720000
1aaaab

#47770000
0aaaab

#47820000
1aaaab
1aaaac

#47870000
0aaaab

#47920000
1aaaab
0aaaac

#47970000
0aaaab

#48020000
1aaaab

#48070000
0aaaab

#48120000
1aaaab
1aaaac

#48170000
0aaaab

#48220000
1aaaab
0aaaac

#48270000
0aaaab

#48320000
1aaaab

#48370000
0aaaab

#48420000
1aaaab
1aaaac

#48470000
0aaaab

#48520000
1aaaab
0aaaac

#48570000
0aaaab

#48620000
1aaaab

#48670000
0aaaab

#48720000
1aaaab
1aaaac

#48770000
0aaaab

#48820000
1aaaab
0aaaac

#48870000
0aaaab

#48920000
1aaaab

#48970000
0aaaab

#49020000
1aaaab
1aaaac

#49070000
0aaaab

#49120000
1aaaab
0aaaac

#49170000
0aaaab

#49220000
1aaaab

#49270000
0aaaab

#49320000
1aaaab
1aaaac

#49370000
0aaaab

#49420000
1aaaab
0aaaac

#49470000
0aaaab

#49520000
1aaaab

#49570000
0aaaab

#49620000
1aaaab
1aaaac

#49670000
0aaaab

#49720000
1aaaab
0aaaac

#49770000
0aaaab

#49820000
1aaaab

#49870000
0aaaab

#49920000
1aaaab
1aaaac

#49970000
0aaaab

#50020000
1aaaab
0aaaac

#50070000
0aaaab

#50120000
1aaaab

#50170000
0aaaab

#50220000
1aaaab
1aaaac

#50270000
0aaaab

#50320000
1aaaab
0aaaac

#50370000
0aaaab

#50420000
1aaaab

#50470000
0aaaab

#50520000
1aaaab
1aaaac

#50570000
0aaaab

#50620000
1aaaab
0aaaac

#50670000
0aaaab

#50720000
1aaaab

#50770000
0aaaab

#50820000
1aaaab
1aaaac

#50870000
0aaaab

#50920000
1aaaab
0aaaac

#50970000
0aaaab

#51020000
1aaaab

#51070000
0aaaab

#51120000
1aaaab
1aaaac

#51170000
0aaaab

#51220000
1aaaab
0aaaac

#51270000
0aaaab

#51320000
1aaaab

#51370000
0aaaab

#51420000
1aaaab
1aaaac

#51470000
0aaaab

#51520000
1aaaab
0aaaac

#51570000
0aaaab

#51620000
1aaaab

#51670000
0aaaab

#51720000
1aaaab
1aaaac

#51770000
0aaaab

#51820000
1aaaab
0aaaac

#51870000
0aaaab

#51920000
1aaaab

#51970000
0aaaab

#52020000
1aaaab
1aaaac

#52070000
0aaaab

#52120000
1aaaab
0aaaac

#52170000
0aaaab

#52220000
1aaaab

#52270000
0aaaab

#52320000
1aaaab
1aaaac

#52370000
0aaaab

#52420000
1aaaab
0aaaac

#52470000
0aaaab

#52520000
1aaaab

#52570000
0aaaab

#52620000
1aaaab
1aaaac

#52670000
0aaaab

#52720000
1aaaab
0aaaac

#52770000
0aaaab

#52820000
1aaaab

#52870000
0aaaab

#52920000
1aaaab
1aaaac

#52970000
0aaaab

#53020000
1aaaab
0aaaac

#53070000
0aaaab

#53120000
1aaaab

#53170000
0aaaab

#53220000
1aaaab
1aaaac

#53270000
0aaaab

#53320000
1aaaab
0aaaac

#53370000
0aaaab

#53420000
1aaaab

#53470000
0aaaab

#53520000
1aaaab
1aaaac

#53570000
0aaaab

#53620000
1aaaab
0aaaac

#53670000
0aaaab

#53720000
1aaaab

#53770000
0aaaab

#53820000
1aaaab
1aaaac

#53870000
0aaaab

#53920000
1aaaab
0aaaac

#53970000
0aaaab

#54020000
1aaaab

#54070000
0aaaab

#54120000
1aaaab
1aaaac

#54170000
0aaaab

#54220000
1aaaab
0aaaac

#54270000
0aaaab

#54320000
1aaaab

#54370000
0aaaab

#54420000
1aaaab
1aaaac

#54470000
0aaaab

#54520000
1aaaab
0aaaac

#54570000
0aaaab

#54620000
1aaaab

#54670000
0aaaab

#54720000
1aaaab
1aaaac

#54770000
0aaaab

#54820000
1aaaab
0aaaac

#54870000
0aaaab

#54920000
1aaaab

#54970000
0aaaab

#55020000
1aaaab
1aaaac

#55070000
0aaaab

#55120000
1aaaab
0aaaac

#55170000
0aaaab

#55220000
1aaaab

#55270000
0aaaab

#55320000
1aaaab
1aaaac

#55370000
0aaaab

#55420000
1aaaab
0aaaac

#55470000
0aaaab

#55520000
1aaaab

#55570000
0aaaab

#55620000
1aaaab
1aaaac

#55670000
0aaaab

#55720000
1aaaab
0aaaac

#55770000
0aaaab

#55820000
1aaaab

#55870000
0aaaab

#55920000
1aaaab
1aaaac

#55970000
0aaaab

#56020000
1aaaab
0aaaac

#56070000
0aaaab

#56120000
1aaaab

#56170000
0aaaab

#56220000
1aaaab
1aaaac

#56270000
0aaaab

#56320000
1aaaab
0aaaac

#56370000
0aaaab

#56420000
1aaaab

#56470000
0aaaab

#56520000
1aaaab
1aaaac

#56570000
0aaaab

#56620000
1aaaab
0aaaac

#56670000
0aaaab

#56720000
1aaaab

#56770000
0aaaab

